{
  "realm": "progress",
  "auth-server-url": "http://192.168.137.6:8080/auth",
  "ssl-required": "none",
  "resource": "Kinvey",
  "verify-token-audience": true,
  "credentials": {
    "secret": "08eb5fd2-455e-4fd2-a909-2686e180d8f0"
  },
  "use-resource-role-mappings": true,
  "confidential-port": 0,
  "policy-enforcer": {}
}